\relax 
\citation{cudamanual}
\citation{opencl}
\citation{chapman2008using}
\citation{OpenACC}
\citation{beyer2011openmp,openmp4.5}
\@LN@col{1}
\@writefile{toc}{\contentsline {section}{\numberline {1}Introduction}{1}}
\@LN@col{2}
\citation{chapman2011experiences}
\citation{chapman2011experiences}
\citation{openacc-openuh}
\citation{EachempatiCoarray2012}
\citation{liao2007openuh}
\citation{taskdepend,HuangOpenMPLocality,EachempatiCoarray2012}
\citation{dragon}
\citation{openshmemanalyzer}
\citation{omp-task-schedule}
\citation{omp-dynamic-opt}
\@LN@col{1}
\newlabel{intro}{{1}{2}}
\@writefile{toc}{\contentsline {section}{\numberline {2}Background}{2}}
\newlabel{background}{{2}{2}}
\@writefile{toc}{\contentsline {subsection}{\numberline {2.1}GPU Architecture}{2}}
\@LN@col{2}
\@writefile{toc}{\contentsline {subsection}{\numberline {2.2}OpenUH Compiler}{2}}
\@writefile{toc}{\contentsline {section}{\numberline {3}OpenUH-Based OpenMP Offloading Support }{2}}
\newlabel{implementation}{{3}{2}}
\citation{cudamanual}
\@LN@col{1}
\@writefile{lof}{\contentsline {figure}{\numberline {1}{\ignorespaces OpenUH compiler framework for OpenMP offloading constructs: NVCC is the NVIDIA CUDA Compiler\relax }}{3}}
\providecommand*\caption@xref[2]{\@setref\relax\@undefined{#1}}
\newlabel{fig:openuh_framework}{{1}{3}}
\@writefile{toc}{\contentsline {subsection}{\numberline {3.1}Frontend and Backend Support}{3}}
\@LN@col{2}
\@writefile{toc}{\contentsline {subsection}{\numberline {3.2}One-to-One Loop Hierarchy Mapping of OpenMP 4.5 Parallelism}{3}}
\@writefile{lot}{\contentsline {table}{\numberline {1}{\ignorespaces OpenUH Loop Mapping in Terms of CUDA Terminologies\relax }}{3}}
\newlabel{tab:omploopmap}{{1}{3}}
\@LN@col{1}
\@writefile{lof}{\contentsline {figure}{\numberline {2}{\ignorespaces One-to-One Mapping of the Three Levels (top) of OpenMP Parallelism into a GPU (bottom)\relax }}{4}}
\newlabel{fig:threelevelparallelismdemo}{{2}{4}}
\@writefile{lof}{\contentsline {figure}{\numberline {3}{\ignorespaces One-to-One Mapping of the Two Levels of OpenMP Parallelism into a GPU\relax }}{4}}
\newlabel{fig:twolevelparallelismdemo}{{3}{4}}
\@LN@col{2}
\@writefile{lof}{\contentsline {figure}{\numberline {4}{\ignorespaces One-to-One Mapping of the One Level of OpenMP Parallelism into a GPU\relax }}{4}}
\newlabel{fig:onelevelparallelismdemo}{{4}{4}}
\@writefile{toc}{\contentsline {section}{\numberline {4}Evaluation}{4}}
\newlabel{experiments}{{4}{4}}
\@writefile{toc}{\contentsline {subsection}{\numberline {4.1}Experimental Setup}{4}}
\@writefile{toc}{\contentsline {subsection}{\numberline {4.2}Performance Evaluation using NAS Benchmarks}{4}}
\citation{Bertolli:2014:CGT:2688361.2688364,openmp-llvm2}
\@LN@col{1}
\@writefile{lof}{\contentsline {figure}{\numberline {5}{\ignorespaces  NPB-OpenMP offloading vs. NPB-OpenMP using OpenUH (Class B)\relax }}{5}}
\newlabel{fig:nas_results_cache_b}{{5}{5}}
\@writefile{lof}{\contentsline {figure}{\numberline {6}{\ignorespaces  NPB-OpenMP offloading vs. NPB-OpenMP using OpenUH (Class C)\relax }}{5}}
\newlabel{fig:nas_results_cache_c}{{6}{5}}
\@writefile{toc}{\contentsline {subsection}{\numberline {4.3}Comparison with Clang OpenMP Implementation}{5}}
\@writefile{lof}{\contentsline {figure}{\numberline {7}{\ignorespaces Performance comparison between OpenUH and LLVM on Jacobi-OpenMP4.x Kernel (using 20000 max-iterations)\relax }}{5}}
\newlabel{fig:heat}{{7}{5}}
\@LN@col{2}
\@writefile{lof}{\contentsline {figure}{\numberline {8}{\ignorespaces Performance Comparison between OpenUH and LLVM on Matrix Multiplication Kernel\relax }}{5}}
\newlabel{fig:matmult}{{8}{5}}
\@writefile{lof}{\contentsline {figure}{\numberline {9}{\ignorespaces Performance Comparison between OpenUH and LLVM on Gauss Kernel\relax }}{5}}
\newlabel{fig:gauss}{{9}{5}}
\@writefile{lof}{\contentsline {figure}{\numberline {10}{\ignorespaces Performance Comparison between OpenUH and LLVM on Laplacian Kernel\relax }}{5}}
\newlabel{fig:laplacian}{{10}{5}}
\citation{openmp-llvm2}
\citation{Bertolli:2014:CGT:2688361.2688364}
\bibstyle{abbrvnat}
\bibdata{biblio,languages}
\bibcite{cudamanual}{{1}{2015}{{cud}}{{}}}
\bibcite{omp-task-schedule}{{2}{2014}{{Ahmad~Qawasmeh}}{{}}}
\bibcite{Bertolli:2014:CGT:2688361.2688364}{{3}{2014}{{Bertolli et~al.}}{{Bertolli, Antao, Eichenberger, O'Brien, Sura, Jacob, Chen, and Sallenave}}}
\bibcite{openmp-llvm2}{{4}{2015}{{Bertolli et~al.}}{{Bertolli, Antao, Bercea, Jacob, Eichenberger, Chen, Sura, Sung, Rokos, Appelhans, and O'Brien}}}
\bibcite{omp-dynamic-opt}{{5}{2011}{{Besar~Wicaksono}}{{}}}
\bibcite{beyer2011openmp}{{6}{2011}{{Beyer et~al.}}{{Beyer, Stotzer, Hart, and de~Supinski}}}
\bibcite{openmp4.5}{{7}{2015}{{Board}}{{}}}
\bibcite{dragon}{{8}{2003}{{Chapman et~al.}}{{Chapman, Hernandez, Huang, hsiung Weng, Liu, Adhianto, and Wen}}}
\bibcite{chapman2008using}{{9}{2008}{{Chapman et~al.}}{{Chapman, Jost, and Van Der~Pas}}}
\bibcite{chapman2011experiences}{{10}{2012}{{Chapman et~al.}}{{Chapman, Eachempati, and Hernandez}}}
\bibcite{EachempatiCoarray2012}{{11}{2012}{{Eachempati et~al.}}{{Eachempati, Richardson, Liao, Calandra, and Chapman}}}
\bibcite{taskdepend}{{12}{2013}{{Ghosh et~al.}}{{Ghosh, Yan, Eachempati, and Chapman}}}
\bibcite{HuangOpenMPLocality}{{13}{2010}{{Huang et~al.}}{{Huang, Jin, Yi, and Chapman}}}
\bibcite{liao2007openuh}{{14}{2007}{{Liao et~al.}}{{Liao, Hernandez, Chapman, Chen, and Zheng}}}
\bibcite{OpenACC}{{15}{}{{OpenACC}}{{}}}
\bibcite{opencl}{{16}{}{{OpenCL Standard}}{{}}}
\bibcite{openshmemanalyzer}{{17}{2014}{{Pophale et~al.}}{{Pophale, Hernandez, Poole, and Chapman}}}
\bibcite{openacc-openuh}{{18}{2014}{{Tian et~al.}}{{Tian, Xu, Yan, Yun, Chandrasekaran, and Chapman}}}
\@LN@col{1}
\@writefile{toc}{\contentsline {section}{\numberline {5}Related Work}{6}}
\newlabel{related}{{5}{6}}
\@writefile{toc}{\contentsline {section}{\numberline {6}Conclusion}{6}}
\newlabel{conclusion}{{6}{6}}
\@LN@col{2}
\newlabel{sigplanconf@finalpage}{{6}{6}}
